{
  "database": {
    "rules": "database.rules.json"
  },
  "hosting": {
    "public": "public",
    "cleanUrls": true,
    "rewrites": [
      {
        "source": "/",
        "destination": "/index.html"
      }
    ]
  }
}
